<svg width="40" height="25" viewBox="0 0 40 25" fill="none" xmlns="http://www.w3.org/2000/svg">
<path d="M0 2C0 0.89543 0.895431 0 2 0H38C39.1046 0 40 0.895431 40 2V23C40 24.1046 39.1046 25 38 25H2C0.895431 25 0 24.1046 0 23V2Z" fill="url(#paint0_linear)"/>
<path fill-rule="evenodd" clip-rule="evenodd" d="M38 1H2C1.44772 1 1 1.44772 1 2V23C1 23.5523 1.44772 24 2 24H38C38.5523 24 39 23.5523 39 23V2C39 1.44772 38.5523 1 38 1ZM2 0C0.895431 0 0 0.89543 0 2V23C0 24.1046 0.895431 25 2 25H38C39.1046 25 40 24.1046 40 23V2C40 0.895431 39.1046 0 38 0H2Z" fill="#C4C4C4"/>
<path fill-rule="evenodd" clip-rule="evenodd" d="M0.257248 1.57126C0.399322 1.33447 0.706452 1.25769 0.943242 1.39976L20.0857 12.8853C20.3225 13.0273 20.3993 13.3345 20.2572 13.5713C20.1152 13.8081 19.808 13.8848 19.5713 13.7428L0.428747 2.25726C0.191956 2.11518 0.115174 1.80805 0.257248 1.57126Z" fill="#C4C4C4"/>
<path fill-rule="evenodd" clip-rule="evenodd" d="M19.7428 13.5713C19.6007 13.3345 19.6775 13.0273 19.9143 12.8853L39.0568 1.39976C39.2935 1.25769 39.6007 1.33447 39.7428 1.57126C39.8848 1.80805 39.808 2.11518 39.5713 2.25726L20.4287 13.7428C20.192 13.8848 19.8848 13.8081 19.7428 13.5713Z" fill="#C4C4C4"/>
<path d="M25 12C25 14.7614 22.7614 17 20 17C17.2386 17 15 14.7614 15 12C15 9.23858 17.2386 7 20 7C22.7614 7 25 9.23858 25 12Z" fill="#C02424"/>
<path d="M18.0786 13.8735C18.3361 13.8462 18.5024 13.8006 18.5776 13.7368C18.6551 13.6707 18.6938 13.5055 18.6938 13.2412V10.1274C18.6938 9.87907 18.6562 9.71729 18.5811 9.64209C18.5059 9.56462 18.3384 9.51676 18.0786 9.49854V9.36865H21.7974L21.8213 10.3735H21.6436C21.5843 10.0636 21.4954 9.86312 21.377 9.77197C21.2585 9.68083 20.9941 9.63525 20.584 9.63525H19.6338C19.5312 9.63525 19.4674 9.65234 19.4424 9.68652C19.4196 9.71842 19.4082 9.77995 19.4082 9.87109V11.4331H20.4849C20.7834 11.4331 20.9736 11.3887 21.0557 11.2998C21.1377 11.2109 21.2038 11.0309 21.2539 10.7598H21.418V12.3799H21.2539C21.2015 12.1087 21.1343 11.9299 21.0522 11.8433C20.9702 11.7544 20.7811 11.71 20.4849 11.71H19.4082V13.4429C19.4082 13.5819 19.4515 13.6639 19.5381 13.689C19.627 13.714 19.8901 13.7266 20.3276 13.7266C20.8016 13.7266 21.1514 13.6753 21.377 13.5728C21.6025 13.4679 21.8053 13.2161 21.9854 12.8174H22.1802L21.8623 14H18.0786V13.8735Z" fill="#FF868D"/>
<path fill-rule="evenodd" clip-rule="evenodd" d="M17.8786 13.6936L18.0575 13.6746C18.1803 13.6616 18.2746 13.6448 18.3436 13.6259C18.408 13.6083 18.4367 13.5924 18.4457 13.5862C18.448 13.5826 18.4591 13.5647 18.4701 13.5177C18.4846 13.4559 18.4939 13.3655 18.4939 13.2412V10.1274C18.4939 10.0118 18.4849 9.92577 18.4708 9.86508C18.4639 9.83516 18.4563 9.81438 18.4498 9.80066C18.4437 9.78783 18.4396 9.78345 18.4396 9.78344L18.4375 9.78139C18.4349 9.77871 18.4127 9.76 18.3441 9.74039C18.2785 9.72166 18.1867 9.7066 18.0646 9.69803L17.8786 9.68498V9.16864H21.9927L22.0261 10.5735H21.618V12.5799H21.0889L21.0575 12.4178C21.0326 12.2889 21.0053 12.1881 20.977 12.1127C20.9478 12.035 20.922 11.9966 20.9071 11.9808L20.9053 11.9789C20.9032 11.9767 20.8804 11.9561 20.8031 11.938C20.7292 11.9206 20.6247 11.9099 20.4849 11.9099H19.6082V13.4429C19.6082 13.4676 19.6102 13.4856 19.6126 13.498C19.6128 13.4989 19.613 13.4998 19.6131 13.5007C19.6452 13.5059 19.7079 13.5124 19.8116 13.5174C19.9387 13.5234 20.1103 13.5266 20.3276 13.5266C20.7937 13.5266 21.1079 13.4751 21.2934 13.391C21.4526 13.3167 21.6295 13.1196 21.8031 12.7351L21.8562 12.6174H22.441L22.0156 14.2H17.8786V13.6936ZM21.377 13.5727C21.1514 13.6753 20.8016 13.7266 20.3276 13.7266C19.8901 13.7266 19.627 13.714 19.5381 13.689C19.4515 13.6639 19.4082 13.5819 19.4082 13.4429V11.7099H20.4849C20.7811 11.7099 20.9702 11.7544 21.0522 11.8432C21.1166 11.9112 21.1718 12.0359 21.218 12.2175C21.2306 12.2673 21.2426 12.3214 21.2539 12.3799H21.418V10.7598H21.2539C21.2427 10.8203 21.2307 10.8762 21.218 10.9276C21.1735 11.1067 21.1194 11.2308 21.0557 11.2998C20.9736 11.3887 20.7834 11.4331 20.4849 11.4331H19.4082V9.87108C19.4082 9.77994 19.4196 9.71841 19.4424 9.68651C19.4675 9.65233 19.5313 9.63524 19.6338 9.63524H20.584C20.9941 9.63524 21.2585 9.68081 21.377 9.77196C21.4797 9.85103 21.5602 10.0124 21.6184 10.2561C21.6273 10.2933 21.6357 10.3324 21.6436 10.3735H21.8213L21.7974 9.36864H18.0786V9.49852C18.2429 9.51005 18.3702 9.53342 18.4607 9.56864C18.5133 9.58912 18.5534 9.61359 18.5811 9.64208C18.6563 9.71727 18.6939 9.87906 18.6939 10.1274V13.2412C18.6939 13.5055 18.6551 13.6707 18.5776 13.7368C18.5499 13.7603 18.5097 13.7814 18.4572 13.8C18.3673 13.8318 18.2411 13.8563 18.0786 13.8735V14H21.8623L22.1802 12.8174H21.9854C21.9757 12.8388 21.966 12.8598 21.9562 12.8804C21.7835 13.2428 21.5904 13.4736 21.377 13.5727ZM19.609 9.83572C19.6085 9.84597 19.6082 9.85772 19.6082 9.87108V11.2331H20.4849C20.6259 11.2331 20.7314 11.2224 20.806 11.205C20.884 11.1868 20.9069 11.1661 20.9087 11.1641C20.9245 11.147 20.9503 11.1073 20.979 11.0292C21.0069 10.9533 21.0334 10.8523 21.0572 10.7234L21.0875 10.5598H21.4755L21.4471 10.4111C21.4192 10.2652 21.3858 10.1535 21.3496 10.0717C21.3128 9.98875 21.2783 9.94841 21.255 9.93049C21.2346 9.9148 21.1777 9.88752 21.0559 9.86651C20.9392 9.84639 20.783 9.83524 20.584 9.83524H19.6338C19.6247 9.83524 19.6165 9.83541 19.609 9.83572Z" fill="#FF868D"/>
<defs>
<linearGradient id="paint0_linear" x1="20" y1="0" x2="20" y2="25" gradientUnits="userSpaceOnUse">
<stop stop-color="white"/>
<stop offset="1" stop-color="#E5E5E5"/>
</linearGradient>
</defs>
</svg>
