<svg width="37" height="44" viewBox="0 0 37 44" fill="none" xmlns="http://www.w3.org/2000/svg">
<path d="M2 10H34L30 36H6L2 10Z" fill="#C4C4C4" stroke="#C4C4C4" stroke-linejoin="round"/>
<ellipse cx="18" cy="35.5" rx="12.5" ry="8.5" fill="#C4C4C4"/>
<path d="M18 18.5C22.3432 18.5 26.3001 17.5925 29.1895 16.1012C32.0533 14.6231 34 12.4922 34 10C34 7.50777 32.0533 5.37693 29.1895 3.89884C26.3001 2.40755 22.3432 1.5 18 1.5C13.6568 1.5 9.6999 2.40755 6.81052 3.89884C3.94672 5.37693 2 7.50777 2 10C2 12.4922 3.94672 14.6231 6.81052 16.1012C9.6999 17.5925 13.6568 18.5 18 18.5Z" fill="url(#paint0_linear)" stroke="#E5E5E5"/>
<g filter="url(#filter0_d)">
<path fill-rule="evenodd" clip-rule="evenodd" d="M6.99509 7.3853L16.5839 6.43182L21.3582 10.3425L22.8064 24.9068C22.8611 25.4563 22.4599 25.9462 21.9103 26.0008L8.97408 27.2872C8.4245 27.3418 7.93469 26.9406 7.88004 26.391L6.09895 8.47935C6.0443 7.92977 6.44552 7.43995 6.99509 7.3853Z" fill="white"/>
<path d="M16.5839 6.43182L16.9007 6.04502C16.7981 5.96099 16.6663 5.92116 16.5344 5.93428L16.5839 6.43182ZM21.3582 10.3425L21.8557 10.2931C21.8426 10.1611 21.7776 10.0398 21.675 9.95575L21.3582 10.3425ZM8.83405 10.7197C8.55927 10.747 8.35866 10.9919 8.38598 11.2667C8.41331 11.5415 8.65822 11.7421 8.933 11.7148L8.83405 10.7197ZM15.4011 11.0716C15.6759 11.0443 15.8765 10.7994 15.8492 10.5246C15.8219 10.2498 15.5769 10.0492 15.3022 10.0765L15.4011 11.0716ZM9.1309 13.705C8.85611 13.7323 8.65551 13.9772 8.68283 14.252C8.71015 14.5268 8.95506 14.7274 9.22985 14.7001L9.1309 13.705ZM19.1808 13.7106C19.4556 13.6833 19.6562 13.4383 19.6288 13.1636C19.6015 12.8888 19.3566 12.6882 19.0818 12.7155L19.1808 13.7106ZM9.42775 16.6903C9.15296 16.7176 8.95235 16.9625 8.97968 17.2373C9.007 17.5121 9.25191 17.7127 9.5267 17.6854L9.42775 16.6903ZM19.4776 16.6959C19.7524 16.6685 19.953 16.4236 19.9257 16.1488C19.8984 15.874 19.6535 15.6734 19.3787 15.7008L19.4776 16.6959ZM9.7246 19.6755C9.44981 19.7029 9.2492 19.9478 9.27653 20.2226C9.30385 20.4973 9.54876 20.698 9.82355 20.6706L9.7246 19.6755ZM19.7745 19.6811C20.0493 19.6538 20.2499 19.4089 20.2225 19.1341C20.1952 18.8593 19.9503 18.6587 19.6755 18.686L19.7745 19.6811ZM10.0214 22.6608C9.74666 22.6881 9.54605 22.933 9.57337 23.2078C9.6007 23.4826 9.84561 23.6832 10.1204 23.6559L10.0214 22.6608ZM20.0713 22.6664C20.3461 22.6391 20.5467 22.3942 20.5194 22.1194C20.4921 21.8446 20.2472 21.644 19.9724 21.6713L20.0713 22.6664ZM16.5344 5.93428L6.94562 6.88776L7.04457 7.88285L16.6333 6.92937L16.5344 5.93428ZM21.675 9.95575L16.9007 6.04502L16.267 6.81863L21.0414 10.7294L21.675 9.95575ZM23.304 24.8573L21.8557 10.2931L20.8607 10.392L22.3089 24.9562L23.304 24.8573ZM21.9598 26.4984C22.7841 26.4164 23.3859 25.6817 23.304 24.8573L22.3089 24.9562C22.3362 25.231 22.1356 25.4759 21.8608 25.5033L21.9598 26.4984ZM9.02355 27.7847L21.9598 26.4984L21.8608 25.5033L8.9246 26.7896L9.02355 27.7847ZM7.38249 26.4405C7.46446 27.2648 8.19919 27.8667 9.02355 27.7847L8.9246 26.7896C8.64982 26.8169 8.40491 26.6163 8.37758 26.3415L7.38249 26.4405ZM5.6014 8.52882L7.38249 26.4405L8.37758 26.3415L6.5965 8.42987L5.6014 8.52882ZM6.94562 6.88776C6.12126 6.96973 5.51943 7.70446 5.6014 8.52882L6.5965 8.42987C6.56917 8.15508 6.76978 7.91017 7.04457 7.88285L6.94562 6.88776ZM8.933 11.7148L15.4011 11.0716L15.3022 10.0765L8.83405 10.7197L8.933 11.7148ZM9.22985 14.7001L19.1808 13.7106L19.0818 12.7155L9.1309 13.705L9.22985 14.7001ZM9.5267 17.6854L19.4776 16.6959L19.3787 15.7008L9.42775 16.6903L9.5267 17.6854ZM9.82355 20.6706L19.7745 19.6811L19.6755 18.686L9.7246 19.6755L9.82355 20.6706ZM10.1204 23.6559L20.0713 22.6664L19.9724 21.6713L10.0214 22.6608L10.1204 23.6559Z" fill="#C4C4C4"/>
<line x1="16.9955" y1="6.89338" x2="17.3418" y2="10.3762" stroke="#C4C4C4" stroke-linecap="round"/>
<line x1="17.3418" y1="10.3762" x2="20.8246" y2="10.0299" stroke="#C4C4C4" stroke-linecap="round"/>
</g>
<g filter="url(#filter1_d)">
<path fill-rule="evenodd" clip-rule="evenodd" d="M18.9483 3.62179L28.2856 6.00223L31.4363 11.309L27.8207 25.4914C27.6843 26.0266 27.1398 26.3498 26.6047 26.2134L14.0076 23.0019C13.4724 22.8655 13.1492 22.321 13.2856 21.7859L17.7322 4.34376C17.8686 3.8086 18.4131 3.48536 18.9483 3.62179Z" fill="white"/>
<path d="M28.2856 6.00223L28.7156 5.74697C28.6479 5.63295 28.5377 5.55048 28.4092 5.51772L28.2856 6.00223ZM18.9483 3.62179L18.8247 4.10629L18.9483 3.62179ZM31.4363 11.309L31.9208 11.4325C31.9536 11.304 31.9339 11.1677 31.8662 11.0537L31.4363 11.309ZM13.2856 21.7859L12.8011 21.6624L13.2856 21.7859ZM17.7322 4.34376L18.2167 4.46728L17.7322 4.34376ZM19.5371 7.38387C19.2696 7.31565 18.9973 7.47727 18.9291 7.74485C18.8609 8.01244 19.0225 8.28466 19.2901 8.35287L19.5371 7.38387ZM25.5887 9.9586C25.8562 10.0268 26.1285 9.86519 26.1967 9.59761C26.2649 9.33003 26.1033 9.05781 25.8357 8.98959L25.5887 9.9586ZM18.796 10.2909C18.5285 10.2227 18.2562 10.3843 18.188 10.6519C18.1198 10.9195 18.2814 11.1917 18.549 11.2599L18.796 10.2909ZM28.2391 13.7302C28.5067 13.7985 28.7789 13.6368 28.8471 13.3693C28.9153 13.1017 28.7537 12.8294 28.4861 12.7612L28.2391 13.7302ZM18.0549 13.1979C17.7874 13.1297 17.5151 13.2913 17.4469 13.5589C17.3787 13.8265 17.5403 14.0987 17.8079 14.1669L18.0549 13.1979ZM27.498 16.6373C27.7656 16.7055 28.0378 16.5439 28.106 16.2763C28.1742 16.0087 28.0126 15.7365 27.745 15.6683L27.498 16.6373ZM17.3138 16.1049C17.0462 16.0367 16.774 16.1983 16.7058 16.4659C16.6376 16.7335 16.7992 17.0057 17.0668 17.0739L17.3138 16.1049ZM26.7569 19.5443C27.0244 19.6125 27.2967 19.4509 27.3649 19.1833C27.4331 18.9157 27.2715 18.6435 27.0039 18.5753L26.7569 19.5443ZM16.5727 19.0119C16.3051 18.9437 16.0329 19.1053 15.9647 19.3729C15.8965 19.6405 16.0581 19.9127 16.3257 19.981L16.5727 19.0119ZM26.0158 22.4513C26.2833 22.5195 26.5556 22.3579 26.6238 22.0903C26.692 21.8227 26.5304 21.5505 26.2628 21.4823L26.0158 22.4513ZM28.4092 5.51772L19.0718 3.13729L18.8247 4.10629L28.1621 6.48673L28.4092 5.51772ZM31.8662 11.0537L28.7156 5.74697L27.8557 6.25748L31.0064 11.5642L31.8662 11.0537ZM28.3052 25.6149L31.9208 11.4325L30.9518 11.1855L27.3362 25.3679L28.3052 25.6149ZM26.4811 26.6979C27.2839 26.9025 28.1005 26.4177 28.3052 25.6149L27.3362 25.3679C27.268 25.6355 26.9958 25.7971 26.7282 25.7289L26.4811 26.6979ZM13.884 23.4864L26.4811 26.6979L26.7282 25.7289L14.1311 22.5174L13.884 23.4864ZM12.8011 21.6624C12.5964 22.4651 13.0813 23.2818 13.884 23.4864L14.1311 22.5174C13.8635 22.4492 13.7019 22.177 13.7701 21.9094L12.8011 21.6624ZM17.2477 4.22025L12.8011 21.6624L13.7701 21.9094L18.2167 4.46728L17.2477 4.22025ZM19.0718 3.13729C18.269 2.93264 17.4524 3.41749 17.2477 4.22025L18.2167 4.46728C18.2849 4.1997 18.5572 4.03808 18.8247 4.10629L19.0718 3.13729ZM19.2901 8.35287L25.5887 9.9586L25.8357 8.98959L19.5371 7.38387L19.2901 8.35287ZM18.549 11.2599L28.2391 13.7302L28.4861 12.7612L18.796 10.2909L18.549 11.2599ZM17.8079 14.1669L27.498 16.6373L27.745 15.6683L18.0549 13.1979L17.8079 14.1669ZM17.0668 17.0739L26.7569 19.5443L27.0039 18.5753L17.3138 16.1049L17.0668 17.0739ZM16.3257 19.981L26.0158 22.4513L26.2628 21.4823L16.5727 19.0119L16.3257 19.981Z" fill="#C4C4C4"/>
<line x1="28.5148" y1="6.57665" x2="27.6502" y2="9.96817" stroke="#C4C4C4" stroke-linecap="round"/>
<line x1="27.6502" y1="9.96818" x2="31.0417" y2="10.8328" stroke="#C4C4C4" stroke-linecap="round"/>
</g>
<path fill-rule="evenodd" clip-rule="evenodd" d="M12.6039 12.0302L22.2356 12.3214L26.4657 16.8153L26.0234 31.4446C26.0067 31.9966 25.5456 32.4306 24.9936 32.4139L11.9996 32.0211C11.4475 32.0044 11.0135 31.5434 11.0302 30.9913L11.5742 12.9995C11.5909 12.4475 12.0519 12.0135 12.6039 12.0302Z" fill="white"/>
<path d="M22.2356 12.3214L22.5997 11.9787C22.5088 11.8822 22.3832 11.8257 22.2507 11.8216L22.2356 12.3214ZM26.4657 16.8153L26.9654 16.8304C26.9695 16.6978 26.9206 16.5691 26.8297 16.4725L26.4657 16.8153ZM26.0234 31.4446L26.5231 31.4597L26.0234 31.4446ZM13.9975 15.574C13.7215 15.5656 13.491 15.7826 13.4826 16.0586C13.4743 16.3346 13.6913 16.5651 13.9673 16.5735L13.9975 15.574ZM20.4643 16.7699C20.7403 16.7783 20.9708 16.5613 20.9792 16.2853C20.9875 16.0092 20.7705 15.7787 20.4945 15.7704L20.4643 16.7699ZM13.9068 18.5726C13.6308 18.5642 13.4003 18.7812 13.392 19.0572C13.3836 19.3333 13.6006 19.5638 13.8766 19.5721L13.9068 18.5726ZM23.872 19.8743C24.1481 19.8827 24.3786 19.6657 24.3869 19.3897C24.3953 19.1136 24.1783 18.8831 23.9023 18.8748L23.872 19.8743ZM13.8162 21.5712C13.5402 21.5629 13.3096 21.7799 13.3013 22.0559C13.2929 22.3319 13.5099 22.5624 13.786 22.5708L13.8162 21.5712ZM23.7814 22.8729C24.0574 22.8813 24.2879 22.6643 24.2963 22.3883C24.3046 22.1123 24.0876 21.8818 23.8116 21.8734L23.7814 22.8729ZM13.7255 24.5698C13.4495 24.5615 13.219 24.7785 13.2106 25.0545C13.2023 25.3305 13.4193 25.561 13.6953 25.5694L13.7255 24.5698ZM23.6907 25.8716C23.9667 25.8799 24.1973 25.6629 24.2056 25.3869C24.214 25.1109 23.997 24.8804 23.7209 24.872L23.6907 25.8716ZM13.6349 27.5685C13.3588 27.5601 13.1283 27.7771 13.12 28.0531C13.1116 28.3291 13.3286 28.5597 13.6046 28.568L13.6349 27.5685ZM23.6001 28.8702C23.8761 28.8786 24.1066 28.6616 24.1149 28.3855C24.1233 28.1095 23.9063 27.879 23.6303 27.8707L23.6001 28.8702ZM22.2507 11.8216L12.6191 11.5304L12.5888 12.53L22.2205 12.8212L22.2507 11.8216ZM26.8297 16.4725L22.5997 11.9787L21.8715 12.6641L26.1016 17.158L26.8297 16.4725ZM26.5231 31.4597L26.9654 16.8304L25.9659 16.8001L25.5236 31.4295L26.5231 31.4597ZM24.9785 32.9137C25.8066 32.9387 26.4981 32.2878 26.5231 31.4597L25.5236 31.4295C25.5153 31.7055 25.2847 31.9225 25.0087 31.9142L24.9785 32.9137ZM11.9844 32.5209L24.9785 32.9137L25.0087 31.9142L12.0147 31.5213L11.9844 32.5209ZM10.5305 30.9762C10.5054 31.8043 11.1564 32.4958 11.9844 32.5209L12.0147 31.5213C11.7386 31.513 11.5217 31.2824 11.53 31.0064L10.5305 30.9762ZM11.0744 12.9844L10.5305 30.9762L11.53 31.0064L12.074 13.0147L11.0744 12.9844ZM12.6191 11.5304C11.791 11.5054 11.0994 12.1564 11.0744 12.9844L12.074 13.0147C12.0823 12.7386 12.3128 12.5216 12.5888 12.53L12.6191 11.5304ZM13.9673 16.5735L20.4643 16.7699L20.4945 15.7704L13.9975 15.574L13.9673 16.5735ZM13.8766 19.5721L23.872 19.8743L23.9023 18.8748L13.9068 18.5726L13.8766 19.5721ZM13.786 22.5708L23.7814 22.8729L23.8116 21.8734L13.8162 21.5712L13.786 22.5708ZM13.6953 25.5694L23.6907 25.8716L23.7209 24.872L13.7255 24.5698L13.6953 25.5694ZM13.6046 28.568L23.6001 28.8702L23.6303 27.8707L13.6349 27.5685L13.6046 28.568Z" fill="#C4C4C4"/>
<line x1="22.5843" y1="12.8322" x2="22.4785" y2="16.3306" stroke="#C4C4C4" stroke-linecap="round"/>
<line x1="22.4785" y1="16.3306" x2="25.9769" y2="16.4364" stroke="#C4C4C4" stroke-linecap="round"/>
<path fill-rule="evenodd" clip-rule="evenodd" d="M18 18C26.5604 18 33.5 14.4183 33.5 10H34L30 36H6L2 10H2.5C2.5 14.4183 9.43959 18 18 18Z" fill="#C4C4C4"/>
<ellipse cx="18" cy="10" rx="15.5" ry="8" fill="url(#paint1_linear)"/>
<path d="M18 18.5C22.3432 18.5 26.3001 17.5925 29.1895 16.1012C32.0533 14.6231 34 12.4922 34 10C34 7.50777 32.0533 5.37693 29.1895 3.89884C26.3001 2.40755 22.3432 1.5 18 1.5C13.6568 1.5 9.6999 2.40755 6.81052 3.89884C3.94672 5.37693 2 7.50777 2 10C2 12.4922 3.94672 14.6231 6.81052 16.1012C9.6999 17.5925 13.6568 18.5 18 18.5Z" stroke="#E5E5E5"/>
<defs>
<filter id="filter0_d" x="0.593933" y="2.93182" width="27.7175" height="31.8603" filterUnits="userSpaceOnUse" color-interpolation-filters="sRGB">
<feFlood flood-opacity="0" result="BackgroundImageFix"/>
<feColorMatrix in="SourceAlpha" type="matrix" values="0 0 0 0 0 0 0 0 0 0 0 0 0 0 0 0 0 0 127 0"/>
<feOffset dy="2"/>
<feGaussianBlur stdDeviation="2.5"/>
<feColorMatrix type="matrix" values="0 0 0 0 0 0 0 0 0 0 0 0 0 0 0 0 0 0 0.15 0"/>
<feBlend mode="normal" in2="BackgroundImageFix" result="effect1_dropShadow"/>
<feBlend mode="normal" in="SourceGraphic" in2="effect1_dropShadow" result="shape"/>
</filter>
<filter id="filter1_d" x="7.75424" y="0.0904541" width="29.7601" height="33.6543" filterUnits="userSpaceOnUse" color-interpolation-filters="sRGB">
<feFlood flood-opacity="0" result="BackgroundImageFix"/>
<feColorMatrix in="SourceAlpha" type="matrix" values="0 0 0 0 0 0 0 0 0 0 0 0 0 0 0 0 0 0 127 0"/>
<feOffset dy="2"/>
<feGaussianBlur stdDeviation="2.5"/>
<feColorMatrix type="matrix" values="0 0 0 0 0 0 0 0 0 0 0 0 0 0 0 0 0 0 0.15 0"/>
<feBlend mode="normal" in2="BackgroundImageFix" result="effect1_dropShadow"/>
<feBlend mode="normal" in="SourceGraphic" in2="effect1_dropShadow" result="shape"/>
</filter>
<linearGradient id="paint0_linear" x1="18" y1="2" x2="18" y2="18" gradientUnits="userSpaceOnUse">
<stop stop-color="#C4C4C4"/>
<stop offset="1" stop-color="#6F6F6F"/>
</linearGradient>
<linearGradient id="paint1_linear" x1="18" y1="10" x2="18" y2="19.5" gradientUnits="userSpaceOnUse">
<stop stop-color="#C4C4C4" stop-opacity="0"/>
<stop offset="1" stop-color="#6F6F6F"/>
</linearGradient>
</defs>
</svg>
